 {
                
                "username": "bms241093",
                "assignTask": "PostMan Insert",
                "targetDate": "04-Aug-2019",
                "isDone": "Completed",
                "userJobs": [
                	{ "jobType":"Java",
                	  "location":"Andheri"
                	 },
                	{
                		"jobType":"Spring",
                	  "location":"Goregaon"
                	}
                	
                	]
 }